<?xml version="1.0" encoding="UTF-8"?>
<svg id="svg38013" width="500" height="131.43" version="1.1" viewBox="0 0 132.29 34.774" xmlns="http://www.w3.org/2000/svg">
 <g id="layer1">
  <g id="g38159" transform="matrix(1.2059 0 0 1.2059 -63.383 -84.591)">
   <g id="g37886" transform="matrix(.27961 0 0 .27961 171.02 63.15)">
    <g id="g625" transform="translate(.0073215)" fill="#c03">
     <g id="g1112" transform="matrix(.94625 0 0 .94625 -455.42 -15.794)" clip-rule="evenodd" fill-rule="evenodd">
      <path id="path32" d="m157.18 58.908c-7.2192-18.427-36.341-10.88-37.587 17.284-4.4417-31.533 34.725-44.473 44.481-21.092 4.3576 10.443 0.0659 19.982-9.0886 23.289-9.8643 3.5632-19.243-0.48716-20.539-7.9591-1.5885-9.1561 9.5454-12.772 12.76-6.1822-11.246-7.2214-13.393 9.4224-3.3009 10.974 10.71 1.6471 16.493-7.8052 13.275-16.313z"/>
      <path id="path34" d="m120.95 77.841c-2.5886 11.732 3.6615 18.417 11.997 15.939 41.375-12.3 46.394 37.476 11.517 43.995 5.117 0.661 7.926 0.352 9.979 0-3.177 1.929-10.343 4.983-21.985 3.262-3.685 0.79064-7.313 0.85197-10.419 0.939 4.908 4.206 16.372 6.092 31.95 1.969-4.13 4.49-13.99 7.871-26.139 7.199-7.079-0.58492-13.615-3.8794-18.707-8.359-4.2734 1.1124-12.436-4.567-15.518-6.474-3.1988 4.1447 3.139 9.5509 2.7918 15.812-9.8478-8.8157-20.816 6.533-30.649-6.857-7.0725-3.29-14.666-4.695-25.625-1.321l-6.5926-56.824c45.998-19.515 57.667-13.533 69.417 0 5.2425 5.1081 9.1301 14.275 15.114 17.358 3.5109 1.7302 5.8606 5.2726 5.669 8.365 4.979 1.883 10.399 3.6066 16.841 2.481 11.712-2.0465 10.187-8.9816 6.899-11.062-7.9507-5.0308-13.836 3.4133-25.296-3.4794-5.3409-3.2123-9.189-13.298-4.9237-25.158 0.72946 2.1202 1.2296 2.7977 3.6793 2.2143zm-70.787 9.9138c-19.248-5.8882-9.8375 21.532-6.679 43.825 2.2606 15.956 13.525 6.3459 15.542-5.617-9.6867 21.14-15.567 6.0863-11.787-6.956-3.3598-10.134-11.905-34.191 2.9244-31.252zm43.14 25.394c1.9914 2.023 4.1264 3.242 7.853 2.462-0.937-5.053-2.1737-7.396-7.853-2.462z"/>
     </g>
     <g id="g593">
      <g id="text2788" aria-label="DebConf 23">
       <g id="g568">
        <path id="path349" d="m-256.22 74.72c9.16 0 15.44-5.52 15.44-14s-6.28-14-15.44-14h-12.72v28zm-6.24-22.68h5.92c5.56 0 9.2 3.32 9.2 8.68s-3.64 8.68-9.2 8.68h-5.92z"/>
        <path id="path351" d="m-215.26 64.04c0-6.92-4.88-11.16-11.2-11.16-6.56 0-11.48 4.64-11.48 11.08 0 6.4 4.84 11.08 12.28 11.08 3.88 0 6.88-1.2 8.88-3.48l-3.32-3.6c-1.48 1.4-3.12 2.08-5.4 2.08-3.28 0-5.56-1.64-6.16-4.32h16.28c0.04-0.52 0.12-1.2 0.12-1.68zm-11.16-6.44c2.8 0 4.84 1.76 5.28 4.48h-10.6c0.44-2.76 2.48-4.48 5.32-4.48z"/>
        <path id="path353" d="m-198.38 52.88c-2.68 0-4.88 0.84-6.48 2.6v-10.44h-6.24v29.68h5.96v-2.48c1.56 1.88 3.88 2.8 6.76 2.8 6.04 0 10.72-4.32 10.72-11.08s-4.68-11.08-10.72-11.08zm-1.08 17.04c-3.12 0-5.48-2.24-5.48-5.96s2.36-5.96 5.48-5.96 5.48 2.24 5.48 5.96-2.36 5.96-5.48 5.96z"/>
        <path id="path355" d="m-169.66 75.2c4.88 0 8.92-1.76 11.56-5l-4.16-3.84c-1.88 2.2-4.24 3.32-7.04 3.32-5.24 0-8.96-3.68-8.96-8.96s3.72-8.96 8.96-8.96c2.8 0 5.16 1.12 7.04 3.28l4.16-3.84c-2.64-3.2-6.68-4.96-11.52-4.96-8.72 0-15.2 6.04-15.2 14.48s6.48 14.48 15.16 14.48z"/>
        <path id="path357" d="m-144.7 75.04c6.84 0 11.8-4.6 11.8-11.08s-4.96-11.08-11.8-11.08-11.84 4.6-11.84 11.08 5 11.08 11.84 11.08zm0-5.12c-3.12 0-5.52-2.24-5.52-5.96s2.4-5.96 5.52-5.96 5.48 2.24 5.48 5.96-2.36 5.96-5.48 5.96z"/>
        <path id="path359" d="m-115.66 52.88c-2.92 0-5.44 1-7.12 2.84v-2.52h-5.96v21.52h6.24v-10.64c0-3.96 2.16-5.8 5.16-5.8 2.76 0 4.36 1.6 4.36 5.08v11.36h6.24v-12.32c0-6.56-3.84-9.52-8.92-9.52z"/>
        <path id="path361" d="m-94.262 52.76c0-2.12 1-3.12 2.84-3.12 0.96 0 1.84 0.28 2.52 0.76l1.64-4.52c-1.16-0.8-3-1.16-4.76-1.16-5.36 0-8.32 3.16-8.32 8v0.96h-3.32v4.8h3.32v16.24h6.24v-16.24h5.36v-4.8h-5.52z"/>
        <path id="path363" d="m-60.302 63.36c3.92-3.64 4.68-6.12 4.68-8.84 0-5.08-4.16-8.28-10.4-8.28-5.04 0-8.96 2.04-11.12 5.2l4.72 3.04c1.36-1.88 3.4-2.8 5.8-2.8 2.96 0 4.48 1.28 4.48 3.48 0 1.36-0.44 2.8-2.92 5.16l-10.8 10.2v4.2h21.16v-5.28h-12.04z"/>
        <path id="path365" d="m-32.622 50.92v-4.2h-19.6v5.2h11.92l-5.76 6.52v4.28h2.96c3.68 0 5.24 1.32 5.24 3.44 0 2.28-2 3.6-5.24 3.6-2.92 0-5.88-0.92-8-2.52l-2.52 4.96c2.72 1.92 6.76 3 10.68 3 7.96 0 11.6-4.32 11.6-9.04 0-4.12-2.56-7.24-7.6-8.04z"/>
       </g>
      </g>
      <g id="text26277" transform="matrix(.48041 0 0 .48041 -162.42 43.157)" style="white-space:pre" aria-label="Kochi • India">
       <path id="path386" d="m-196.3 135.65-12.48-15.48 11.76-12.52h-5.84l-13.84 14.36v-14.36h-5.2v28h5.2v-7.16l4.44-4.56 9.88 11.72z"/>
       <path id="path388" d="m-184.54 135.93c6.64 0 11.4-4.56 11.4-10.96s-4.76-10.92-11.4-10.92c-6.56 0-11.36 4.52-11.36 10.92s4.8 10.96 11.36 10.96zm0-4.28c-3.6 0-6.32-2.6-6.32-6.68s2.72-6.68 6.32-6.68c3.64 0 6.36 2.6 6.36 6.68s-2.72 6.68-6.36 6.68z"/>
       <path id="path390" d="m-158.54 135.93c4.16 0 7.48-1.8 9.12-5l-3.84-2.24c-1.28 2.04-3.2 2.96-5.32 2.96-3.68 0-6.48-2.52-6.48-6.68 0-4.12 2.8-6.68 6.48-6.68 2.12 0 4.04 0.92 5.32 2.96l3.84-2.24c-1.64-3.24-4.96-4.96-9.12-4.96-6.76 0-11.56 4.52-11.56 10.92s4.8 10.96 11.56 10.96z"/>
       <path id="path392" d="m-133.18 114.05c-2.96 0-5.48 0.96-7.12 2.72v-10.8h-5v29.68h5v-10.8c0-4.28 2.4-6.44 5.96-6.44 3.2 0 5.08 1.84 5.08 5.64v11.6h5v-12.24c0-6.44-3.8-9.36-8.92-9.36z"/>
       <path id="path394" d="m-115.38 110.77c1.88 0 3.2-1.36 3.2-3.12 0-1.64-1.36-2.88-3.2-2.88s-3.2 1.32-3.2 3 1.36 3 3.2 3zm2.48 24.88v-21.36h-5v21.36z"/>
       <path id="path396" d="m-91.902 128.89c2.32 0 4.32-1.8 4.32-4.36 0-2.52-2-4.32-4.32-4.32s-4.28 1.8-4.28 4.32c0 2.56 1.96 4.36 4.28 4.36z"/>
       <path id="path398" d="m-65.182 135.65v-28h-5.2v28z"/>
       <path id="path400" d="m-45.982 114.05c-3.12 0-5.72 1.04-7.36 3v-2.76h-4.76v21.36h5v-10.8c0-4.28 2.4-6.44 5.96-6.44 3.2 0 5.08 1.84 5.08 5.64v11.6h5v-12.24c0-6.44-3.8-9.36-8.92-9.36z"/>
       <path id="path402" d="m-14.742 116.93c-1.68-1.96-4.12-2.88-6.88-2.88-6.2 0-10.8 4.28-10.8 10.92s4.6 10.96 10.8 10.96c2.92 0 5.4-1 7.08-3.04v2.76h4.8v-29.68h-5zm-6.28 14.72c-3.6 0-6.36-2.6-6.36-6.68s2.76-6.68 6.36-6.68 6.36 2.6 6.36 6.68-2.76 6.68-6.36 6.68z"/>
       <path id="path404" d="m-0.66228 110.77c1.88 0 3.2-1.36 3.2-3.12 0-1.64-1.36-2.88-3.2-2.88-1.84 0-3.2 1.32-3.2 3s1.36 3 3.2 3zm2.48 24.88v-21.36h-5v21.36z"/>
       <path id="path406" d="m16.538 114.05c-3.44 0-6.76 0.88-9.04 2.64l1.96 3.64c1.6-1.32 4.08-2.12 6.48-2.12 3.56 0 5.32 1.72 5.32 4.64v0.32h-5.52c-6.48 0-8.88 2.8-8.88 6.36 0 3.72 3.08 6.4 7.96 6.4 3.2 0 5.52-1.04 6.72-2.88v2.6h4.72v-12.52c0-6.16-3.56-9.08-9.72-9.08zm-0.68 18.24c-2.56 0-4.08-1.16-4.08-2.96 0-1.56 0.92-2.84 4.32-2.84h5.16v2.48c-0.84 2.2-2.96 3.32-5.4 3.32z"/>
      </g>
     </g>
    </g>
   </g>
  </g>
 </g>
</svg>
